{
    "fuelReportFilterData": {
        "data": {
            "years": [
                {
                    "year": 20233
                },
                {
                    "year": 2024
                },
                {
                    "year": 2025
                }
            ],
            "periods": [
                {
                    "id": 11,
                    "period_name": "P100"
                },
                {
                    "id": 12,
                    "period_name": "P101"
                }
            ],
            "supplier": [
                {
                    "id": 1,
                    "name": "supplier1"
                }
            ],
            "divisions": [
                {
                    "id": 1,
                    "division_name": "South"
                },
                {
                    "id": 4,
                    "division_name": "Central"
                },
                {
                    "id": 2,
                    "division_name": "North"
                },
                {
                    "id": 3,
                    "division_name": "West"
                }
            ],
            "transports": [
                {
                    "id": 1,
                    "transport_name": "Fleet"
                },
                {
                    "id": 2,
                    "transport_name": "Transport"
                }
            ],
            "fuelTypes": [
                {
                    "fuel_name": "Bulk Diesel",
                    "id": 3
                },
                {
                    "fuel_name": "Miscellaneous",
                    "id": 5
                }
            ]
        }
    },
    "ghgDetailMatricsMockData": {
        "list": [
            {
                "business_unit": "B100",
                "fuel_type": "B100",
                "total_fuel_consumed": 0,
                "ghg_metric_ton": null
            },
            {
                "business_unit": "Bulk",
                "fuel_type": "Diesel",
                "total_fuel_consumed": 1799352.078125,
                "ghg_metric_ton": 18382.30498541839
            },
            {
                "business_unit": "Bulk",
                "fuel_type": "Gasoline",
                "total_fuel_consumed": 0,
                "ghg_metric_ton": 0
            },
            {
                "business_unit": "EVs",
                "fuel_type": "kWh",
                "total_fuel_consumed": 2343167.765625,
                "ghg_metric_ton": null
            },
            {
                "business_unit": "Fleet",
                "fuel_type": "CNG",
                "total_fuel_consumed": 0,
                "ghg_metric_ton": 0
            },
            {
                "business_unit": "Fleet",
                "fuel_type": "Electricity",
                "total_fuel_consumed": 1931546.921875,
                "ghg_metric_ton": 0
            },
            {
                "business_unit": "Fleet",
                "fuel_type": "Propane",
                "total_fuel_consumed": 3372985.546875,
                "ghg_metric_ton": 19881.14248100039
            },
            {
                "business_unit": "Lease Cars",
                "fuel_type": "Gasoline",
                "total_fuel_consumed": 1493834.390625,
                "ghg_metric_ton": 13230.484874811375
            },
            {
                "business_unit": "Other",
                "fuel_type": "rCNG",
                "total_fuel_consumed": 9058019.6875,
                "ghg_metric_ton": null
            },
            {
                "business_unit": "Propane",
                "fuel_type": "Propane",
                "total_fuel_consumed": 57231.500244140625,
                "ghg_metric_ton": 337.33545398952026
            }
        ],
        "pagination": {
            "page": "1",
            "page_size": "10",
            "total_count": 200,
            "totalPages": 20
        }
    },
    "transactionListMockData": {
        "list": [
            {
                "transactions": null,
                "total_fuel_consumption": 229.6,
                "division": "West",
                "location": "Yuma AZ",
                "market": "Arizona Mkt",
                "business": "Mountain Rgn",
                "company": "Ferrellgas",
                "fuel": "Propane"
            },
            {
                "transactions": "Diesel Exh Fluid Dispensed",
                "total_fuel_consumption": 57.937,
                "division": "West",
                "location": "Yuma AZ",
                "market": "Arizona Mkt",
                "business": "Mountain Rgn",
                "company": "Fuel Man",
                "fuel": "Retail Diesel"
            }
        ],
        "pagination": {
            "page": 1,
            "page_size": 10,
            "total_count": 2532
        }
    },
    "fuelReportMatricsMockData": {
        "total_ghg_emissions": 13789.4892181784,
        "fuel_consumption_by_transport": [
            {
                "id": 1,
                "transport_name": "Fleet",
                "fuel_consumption": 2647335.49976
            },
            {
                "id": 2,
                "transport_name": "Transport",
                "fuel_consumption": 923873.55689
            }
        ],
        "emissions_by_transport": [
            {
                "id": 1,
                "transport_name": "Fleet",
                "emissions": 10159.1343621852
            },
            {
                "id": 2,
                "transport_name": "Transport",
                "emissions": 3630.3548559932
            }
        ],
        "totalEmissions": [
            {
                "total_ghg_emissions": 5110.3288611
            }
        ],
        "fuelConsumption": [
            {
                "id": 3,
                "transport_name": "Traffic",
                "fuel_consumption": 1299049
            }
        ],
        "location": 28
    },
    "transactionFilterMockData": {
        "Company": [
            {
                "name": "Comdata",
                "id": 1
            },
            {
                "name": "Corrigan Oil",
                "id": 8
            }
        ],
        "BusinessUnitScope1": [
            {
                "name": "11801 W Silver Spring Dr",
                "id": 16
            },
            {
                "name": "Southeast Rgn",
                "id": 1
            }
        ],
        "Market": [
            {
                "name": "4000 NW 126th Ave",
                "id": 76
            },
            {
                "name": "WV/E Kentucky Mkt",
                "id": 1
            }
        ],
        "Location": [
            {
                "name": "11801 W Silver Spring Dr",
                "id": 234
            },
            {
                "name": "Aberdeen MD",
                "id": 235
            }
        ],
        "FuelType": [
            {
                "name": "Bulk Diesel",
                "id": 3
            },
            {
                "name": "Miscellaneous",
                "id": 5
            },
            {
                "name": "Propane",
                "id": 4
            },
            {
                "name": "Retail Diesel",
                "id": 1
            },
            {
                "name": "Retail Unleaded",
                "id": 2
            }
        ]
    },
    "pfnaTransactionDetailDtoMockData": {
        "status": true,
        "message": "Transaction details fetched successfully.",
        "data": {
            "list": [
                {
                    "id": 95,
                    "supplier": "Msfld Oil",
                    "fuel_name": "Bulk",
                    "date": "2025-01-06",
                    "location_name": "Williamsport PA",
                    "fuel_type_id": 6,
                    "gallons": 7500,
                    "emissions": 29.50425
                }
            ],
            "pagination": {
                "page": 1,
                "page_size": 10,
                "total_count": 190,
                "totalPages": 19
            }
        }
    }
}